{
	"VendingMachineId": 1,
	"Options": [

		{
			"RecipeId": 1,
			"Name": "Lemon Tea",
			"Instructions": [ "Boil some water", "Steep the water in the tea", "Pour tea in the cup", "Add Lemon" ]
		},
		{
			"RecipeId": 2,
			"Name": "Coffee",
			"Instructions": [ "Boil some water", "Brew the coffee grounds", "Pour coffee in the cup", "Add sugar and milk" ]
		},
		{
			"RecipeId": 3,
			"Name": "Hot Chocolate",
			"Instructions": [ "Boil some water", "Add drinking chocolate powder to the water", "Pour chocolate in the cup" ]
		}

	]
}
